[
	{"image" : "icon_video_news_item.png", "subject" : "Real Madrid coach Jose Mourinho feels having the...", "time" : "2/21/2012", "url": "local:///assets/models/devinfo.html" },
	{"image" : "icon_video_news_item.png", "subject" : "Real Madrid coach Jose Mourinho feels having the...", "time" : "2/21/2012", "url": "local:///assets/models/devinfo.html" },
	{"image" : "icon_video_news_item.png", "subject" : "Real Madrid coach Jose Mourinho feels having the...", "time" : "2/21/2012", "url": "local:///assets/models/devinfo.html" },
	{"image" : "icon_video_news_item.png", "subject" : "Real Madrid coach Jose Mourinho feels having the...", "time" : "2/21/2012", "url": "local:///assets/models/devinfo.html" },
	{"image" : "icon_video_news_item.png", "subject" : "Real Madrid coach Jose Mourinho feels having the...", "time" : "2/21/2012", "url": "local:///assets/models/devinfo.html" },
	{"image" : "icon_video_news_item.png", "subject" : "Real Madrid coach Jose Mourinho feels having the...", "time" : "2/21/2012", "url": "local:///assets/models/devinfo.html" },
	{"image" : "icon_video_news_item.png", "subject" : "Real Madrid coach Jose Mourinho feels having the...", "time" : "2/21/2012", "url": "local:///assets/models/devinfo.html" }	
]