[
	{"matchResult" : {"homeTeamLogo" : "asset:///images/icon_side_bsm.png", "homeTeamAlias" : "POL", "homeTeamScore" : 1, 
	 	"visitingTeamLogo" : "asset:///images/icon_side_bsm.png", "visitingTeamAlias" : "UKR", "visitingTeamScore" : 3, "matchStatus" : "Finish",
	 	"isLiveMatch" : 1, "stadiumCity" : "Kiev", "stadiumName" : "Olympic Stadium", "matchTimeZoneDate": "2013/5/2"},
	"detailInfo" :
		{"preview" : {"url" : "local:///assets/models/devinfo.html"}, 
		 "report" : {"url" : "local:///assets/models/devinfo.html"},
		 "lineUp" : {"homeTeamLineUp" : [{"position": "G", "playerName" : "Pepe Reina"}, {"position": "D", "playerName" : "G.Johnson"},
		 								{"position": "D", "playerName" : "Hose Enrique"}, {"position": "D", "playerName" : "J.Carragher"},
		 								{"position": "D", "playerName" : "M.Skrtel"}, {"position": "MF", "playerName" : "Phillippe Counting"}],
		 			"homeTeamLineUpOnBench" : [{"position": "G", "playerName" : "Pepe Reina"}, {"position": "D", "playerName" : "G.Johnson"},
		 								{"position": "D", "playerName" : "Hose Enrique"}, {"position": "D", "playerName" : "J.Carragher"},
		 								{"position": "D", "playerName" : "M.Skrtel"}, {"position": "M", "playerName" : "Phillippe Counting"}],
		 			"awayTeamLineUp" : [{"position": "G", "playerName" : "Pepe Reina"}, {"position": "D", "playerName" : "G.Johnson"},
		 								{"position": "D", "playerName" : "Hose Enrique"}, {"position": "D", "playerName" : "J.Carragher"},
		 								{"position": "D", "playerName" : "M.Skrtel"}, {"position": "M", "playerName" : "Phillippe Counting"}],
		 			"awayTeamLineUpOnBench" : [{"position": "G", "playerName" : "Pepe Reina"}, {"position": "D", "playerName" : "G.Johnson"},
		 								{"position": "D", "playerName" : "Hose Enrique"}, {"position": "D", "playerName" : "J.Carragher"},
		 								{"position": "D", "playerName" : "M.Skrtel"}, {"position": "M", "playerName" : "Phillippe Counting"}]
		 			},
		 "events" : [{"minute" : 17, "playerName": "Arteta", "isHomeTeamEvent": 1, "type" : "YellowCard"},
		 			{"minute" : 18, "playerName": "Donovan", "isHomeTeamEvent": 0, "type" : "OG"},
		 			{"minute" : 18, "playerName": "Rodwell", "isHomeTeamEvent": 1, "type" : "SubIn"},
		 			{"minute" : 18, "playerName": "Donovan", "isHomeTeamEvent": 1, "type" : "SubOut"},
		 			{"minute" : 25, "playerName": "Garcia", "isHomeTeamEvent": 0, "type" : "YellowCard"},
		 			{"minute" : 28, "playerName": "Osman", "isHomeTeamEvent": 1, "type" : "GoalIn"},
		 			{"minute" : 30, "playerName": "Geovanni", "isHomeTeamEvent": 0, "type" : "SubIn"},
		 			{"minute" : 30, "playerName": "Bamby", "isHomeTeamEvent": 0, "type" : "SubOut"},
		 			{"minute" : 31, "playerName": "Arteta", "isHomeTeamEvent": 1, "type" : "RedCard"},
		 			{"minute" : 33, "playerName": "Caimey", "isHomeTeamEvent": 0, "type" : "GoalIn"}],
		 "videoHighlights": [{"image" : "icon_video_news_item.png", "subject" : "Liverpool 1 QPR 0-", "time": "19/05/2013", "url" : ""}],
		 "inMatchClips" : [{"image" : "icon_video_news_item.png", "subject" : "Liverpool 1 QPR 0-", "time": "19/05/2013", "url" : ""},
		 					{"image" : "icon_video_news_item.png", "subject" : "Liverpool 1 QPR 0-", "time": "19/05/2013", "url" : ""},
		 					{"image" : "icon_video_news_item.png", "subject" : "Liverpool 1 QPR 0-", "time": "19/05/2013", "url" : ""}]
		}
	}
]